<svg width="460" height="512" viewBox="0 0 460 512" fill="none" xmlns="http://www.w3.org/2000/svg">
<mask id="mask0" mask-type="alpha" maskUnits="userSpaceOnUse" x="0" y="0" width="460" height="512">
<path d="M0 59.6992C0 21.8923 18.843 0 46.2727 0C57.4362 0 70.0266 3.63093 83.3411 11.2896L425.471 208.064C471.51 234.543 471.51 277.461 425.471 303.949L83.3411 500.728C70.1331 508.318 57.6535 511.945 46.5581 512H46.0597C20.4104 511.881 2.32131 492.553 0.230004 458.91C0.0937075 456.747 0 454.549 0 452.267V446.737C1.20111 432.674 5.98427 419.669 12.7863 407.851C23.5282 392.585 36.0291 378.586 47.8103 366.694C70.1203 347.068 92.0215 335.147 93.1928 332.779C93.8615 331.43 93.0948 328.431 93.0948 328.431L60.3155 269.841C60.3155 269.841 60.0259 269.525 59.5744 269.124C59.272 268.851 58.9057 268.54 58.5138 268.262C57.9175 267.84 57.2744 267.486 56.7122 267.426C56.5247 267.405 56.2351 267.43 55.8731 267.49C55.7623 267.507 55.6048 267.55 55.4812 267.571C55.1831 267.631 54.8849 267.695 54.5059 267.789C54.3355 267.831 54.114 267.891 53.9266 267.938C53.5177 268.049 53.0918 268.16 52.5977 268.301C52.4316 268.348 52.2357 268.412 52.0568 268.459C48.7133 269.427 43.7725 271.002 37.3538 272.909C18.7323 278.447 0 264.474 0 244.992V59.6992ZM193.009 174.029C174.311 177.95 152.984 187.473 134.18 200.209L113.544 195.115C112.078 194.825 110.592 195.221 109.467 196.203L74.5457 208.102L95.7356 229.175L93.7423 231.684L90.0111 236.39C89.7471 236.77 89.4915 237.167 89.2274 237.551C85.3345 243.196 81.7439 249.284 78.673 255.872C78.5963 256.043 78.5239 256.759 78.4685 257.89L108.492 312.811L108.748 313.271C108.748 313.271 110.852 315.529 112.351 315.691C118.548 316.348 126.121 316.629 134.831 315.994L143.959 314.807L151.012 343.902L152.49 342.652L179.204 320.06C180.623 319.595 181.73 318.528 182.241 317.12L188.545 296.768C209.126 287.198 228.276 273.801 241.279 259.767C258.474 241.203 269.927 221.705 276.938 205.329C280.682 196.591 283.182 188.727 284.575 182.4C285.098 179.998 283.744 177.596 281.423 176.806C263.828 170.846 230.933 166.08 193.009 174.029ZM204.513 199.671C207.763 197.828 211.353 196.89 214.987 196.89C216.908 196.89 218.846 197.15 220.745 197.683C222.091 198.059 223.36 198.575 224.561 199.177C228.446 201.118 231.568 204.147 233.625 207.795C236.313 212.578 237.19 218.389 235.61 224.077C234.801 226.999 233.382 229.636 231.517 231.915C229.864 233.929 227.867 235.674 225.528 237.001C220.558 239.812 214.791 240.521 209.292 238.985C205.348 237.884 201.996 235.725 199.398 232.917C194.512 227.635 192.366 220.023 194.427 212.591C195.65 208.201 198.205 204.442 201.685 201.655C202.579 200.939 203.495 200.247 204.513 199.671Z" fill="white"/>
</mask>
<g mask="url(#mask0)">
<path d="M0 59.6992C0 21.8923 18.843 0 46.2727 0C57.4362 0 70.0266 3.63093 83.3411 11.2896L425.471 208.064C471.51 234.543 471.51 277.461 425.471 303.949L83.3411 500.728C70.1331 508.318 57.6535 511.945 46.5581 512H46.0597C20.4104 511.881 2.32131 492.553 0.230004 458.91C0.0937075 456.747 0 454.549 0 452.267V446.737C1.20111 432.674 5.98427 419.669 12.7863 407.851C23.5282 392.585 36.0291 378.586 47.8103 366.694C70.1203 347.068 92.0215 335.147 93.1928 332.779C93.8615 331.43 93.0948 328.431 93.0948 328.431L60.3155 269.841C60.3155 269.841 60.0259 269.525 59.5744 269.124C59.272 268.851 58.9057 268.54 58.5138 268.262C57.9175 267.84 57.2744 267.486 56.7122 267.426C56.5247 267.405 56.2351 267.43 55.8731 267.49C55.7623 267.507 55.6048 267.55 55.4812 267.571C55.1831 267.631 54.8849 267.695 54.5059 267.789C54.3355 267.831 54.114 267.891 53.9266 267.938C53.5177 268.049 53.0918 268.16 52.5977 268.301C52.4316 268.348 52.2357 268.412 52.0568 268.459C48.7133 269.427 43.7725 271.002 37.3538 272.909C18.7323 278.447 0 264.474 0 244.992V59.6992ZM193.009 174.029C174.311 177.95 152.984 187.473 134.18 200.209L113.544 195.115C112.078 194.825 110.592 195.221 109.467 196.203L74.5457 208.102L95.7356 229.175L93.7423 231.684L90.0111 236.39C89.7471 236.77 89.4915 237.167 89.2274 237.551C85.3345 243.196 81.7439 249.284 78.673 255.872C78.5963 256.043 78.5239 256.759 78.4685 257.89L108.492 312.811L108.748 313.271C108.748 313.271 110.852 315.529 112.351 315.691C118.548 316.348 126.121 316.629 134.831 315.994L143.959 314.807L151.012 343.902L152.49 342.652L179.204 320.06C180.623 319.595 181.73 318.528 182.241 317.12L188.545 296.768C209.126 287.198 228.276 273.801 241.279 259.767C258.474 241.203 269.927 221.705 276.938 205.329C280.682 196.591 283.182 188.727 284.575 182.4C285.098 179.998 283.744 177.596 281.423 176.806C263.828 170.846 230.933 166.08 193.009 174.029ZM204.513 199.671C207.763 197.828 211.353 196.89 214.987 196.89C216.908 196.89 218.846 197.15 220.745 197.683C222.091 198.059 223.36 198.575 224.561 199.177C228.446 201.118 231.568 204.147 233.625 207.795C236.313 212.578 237.19 218.389 235.61 224.077C234.801 226.999 233.382 229.636 231.517 231.915C229.864 233.929 227.867 235.674 225.528 237.001C220.558 239.812 214.791 240.521 209.292 238.985C205.348 237.884 201.996 235.725 199.398 232.917C194.512 227.635 192.366 220.023 194.427 212.591C195.65 208.201 198.205 204.442 201.685 201.655C202.579 200.939 203.495 200.247 204.513 199.671Z" fill="url(#paint0_linear)"/>
</g>
<defs>
<linearGradient id="paint0_linear" x1="0" y1="256" x2="460" y2="256" gradientUnits="userSpaceOnUse">
<stop stop-color="#FB0E8B"/>
<stop offset="1" stop-color="#F2403F"/>
</linearGradient>
</defs>
</svg>
